{
	"ID": "46f9c56743dc6cb4c5d8e8a5c9c22a8b",
	"TypeName": "FlaxEngine.SceneAsset",
	"EngineBuild": 6228,
	"Data": [
		{
			"ID": "46f9c56743dc6cb4c5d8e8a5c9c22a8b",
			"TypeName": "FlaxEngine.Scene",
			"LightmapSettings": {
				"IndirectLightingIntensity": 1.0,
				"GlobalObjectsScale": 1.0,
				"ChartsPadding": 3,
				"AtlasSize": 1024,
				"BounceCount": 1,
				"CompressLightmaps": true,
				"UseGeometryWithNoMaterials": true,
				"Quality": 10
			}
		},
		{
			"ID": "79eafeed47817f5bfb2543be3a18b4f5",
			"TypeName": "FlaxEngine.DirectionalLight",
			"ParentID": "46f9c56743dc6cb4c5d8e8a5c9c22a8b",
			"Name": "Sun",
			"Transform": {
				"Translation": {
					"X": 40.0,
					"Y": 160.0,
					"Z": 0.0
				},
				"Orientation": {
					"X": 0.3826834559440613,
					"Y": 0.0,
					"Z": 0.0,
					"W": 0.9238795042037964
				}
			}
		},
		{
			"ID": "79456a4b45b0ed3f862c6ea6d6ea72a9",
			"TypeName": "FlaxEngine.Sky",
			"ParentID": "46f9c56743dc6cb4c5d8e8a5c9c22a8b",
			"Name": "Sky",
			"Transform": {
				"Translation": {
					"X": 40.0,
					"Y": 150.0,
					"Z": 0.0
				}
			},
			"Sun": "79eafeed47817f5bfb2543be3a18b4f5"
		},
		{
			"ID": "59d1e36d43eefb444be623906ce86713",
			"TypeName": "FlaxEngine.SkyLight",
			"ParentID": "46f9c56743dc6cb4c5d8e8a5c9c22a8b",
			"Name": "SkyLight",
			"Brightness": 2.5,
			"CustomTexture": "c54410104ff39427bc11e5bc761d66b0"
		},
		{
			"ID": "f82c57fc447367bf1d2021bf6ea0b35c",
			"TypeName": "FlaxEngine.StaticModel",
			"ParentID": "46f9c56743dc6cb4c5d8e8a5c9c22a8b",
			"Name": "Floor",
			"Transform": {
				"Scale": {
					"X": 4.0,
					"Y": 0.5,
					"Z": 4.0
				}
			},
			"Model": "b43f0f8f4aaba3f3156896a5a22ba493",
			"Buffer": {
				"Entries": [
					{
						"Material": "1771b53343d461faacdf2c8581b1fdbb",
						"ShadowsMode": 3,
						"Visible": true,
						"ReceiveDecals": true
					}
				]
			}
		},
		{
			"ID": "16778ab74fa602a47a6d79930b72e419",
			"TypeName": "FlaxEngine.Camera",
			"ParentID": "46f9c56743dc6cb4c5d8e8a5c9c22a8b",
			"Name": "Camera",
			"Transform": {
				"Translation": {
					"X": 0.0,
					"Y": 150.0,
					"Z": -300.0
				}
			}
		}
	]
}